\babel@toc {french}{}
\contentsline {chapter}{\numberline {1}R\IeC {\'e}sum\IeC {\'e} technique}{3}{chapter.1}% 
\contentsline {chapter}{\numberline {2}L'entreprise et l'\IeC {\'e}quipe}{4}{chapter.2}% 
\contentsline {section}{\numberline {2.1}L'entreprise}{4}{section.2.1}% 
\contentsline {section}{\numberline {2.2}L'\IeC {\'e}quipe}{5}{section.2.2}% 
\contentsline {chapter}{\numberline {3}Ma mission}{7}{chapter.3}% 
\contentsline {section}{\numberline {3.1}Sujet}{7}{section.3.1}% 
\contentsline {section}{\numberline {3.2}Planning}{8}{section.3.2}% 
\contentsline {section}{\numberline {3.3}Contributions}{8}{section.3.3}% 
\contentsline {section}{\numberline {3.4}Outils et technologies}{9}{section.3.4}% 
\contentsline {section}{\numberline {3.5}Prise de recul}{9}{section.3.5}% 
\contentsline {chapter}{\numberline {4}Travail effectu\IeC {\'e}}{11}{chapter.4}% 
\contentsline {chapter}{\numberline {5}Conclusion}{13}{chapter.5}% 
\contentsline {section}{\numberline {5.1}Conclusion technique}{13}{section.5.1}% 
\contentsline {section}{\numberline {5.2}Conclusion personnelle}{13}{section.5.2}% 
\contentsline {chapter}{\numberline {6}Bibliographie}{14}{chapter.6}% 
\contentsline {chapter}{\numberline {7}Glossaire}{15}{chapter.7}% 
\contentsline {chapter}{\numberline {8}Annexes}{16}{chapter.8}% 
\contentsline {section}{\numberline {8.1}Annexe A}{16}{section.8.1}% 
